87 373 289
181 219 4 0
182 219 4 0
296 155 3 2
297 155 3 2
133 157 2 1
298 155 3 2
134 157 2 1
299 155 3 2
135 157 2 1
178 218 4 0
300 155 3 2
136 157 2 1
179 218 4 0
137 157 2 1
180 218 4 0
138 157 2 1
181 218 4 0
139 157 2 1
182 218 4 0
296 154 3 2
297 154 3 2
298 154 3 2
134 156 2 1
299 154 3 2
135 156 2 1
300 154 3 2
136 156 2 1
137 156 2 1
180 217 4 0
138 156 2 1
180 223 4 0
134 155 2 1
298 153 3 2
135 155 2 1
136 155 2 1
137 155 2 1
138 155 2 1
298 159 3 2
178 222 4 0
179 222 4 0
180 222 4 0
181 222 4 0
182 222 4 0
136 154 2 1
296 158 3 2
297 158 3 2
298 158 3 2
299 158 3 2
178 221 4 0
136 160 2 1
300 158 3 2
179 221 4 0
180 221 4 0
181 221 4 0
182 221 4 0
296 157 3 2
297 157 3 2
134 159 2 1
298 157 3 2
177 220 4 0
135 159 2 1
299 157 3 2
178 220 4 0
136 159 2 1
300 157 3 2
179 220 4 0
137 159 2 1
180 220 4 0
138 159 2 1
181 220 4 0
182 220 4 0
183 220 4 0
295 156 3 2
296 156 3 2
297 156 3 2
298 156 3 2
134 158 2 1
135 158 2 1
299 156 3 2
178 219 4 0
136 158 2 1
300 156 3 2
179 219 4 0
137 158 2 1
301 156 3 2
180 219 4 0
138 158 2 1
